Shetland Sheepdog Mix
Domestic Shorthair Mix
Pit Bull Mix
Lhasa Apso/Miniature Poodle
Cairn Terrier/Chihuahua Shorthair
American Pit Bull Terrier Mix
Cairn Terrier
Miniature Schnauzer Mix
Yorkshire Terrier Mix
Great Pyrenees Mix
Angora Mix
Flat Coat Retriever Mix
Queensland Heeler Mix
Plott Hound/Boxer
German Shepherd Mix
American Staffordshire Terrier Mix
Chihuahua Shorthair Mix
Russian Blue Mix
Labrador Retriever Mix
Collie Smooth/German Shepherd
Domestic Longhair Mix
Beagle
Pit Bull/Labrador Retriever
Blue Lacy Mix
Black Mouth Cur Mix
Dachshund/Beagle
Dachshund Mix
Maltese Mix
Pointer Mix
English Foxhound
Vizsla Mix
German Shepherd/Great Pyrenees
Cardigan Welsh Corgi/Chihuahua Shorthair
Domestic Longhair
Chow Chow/Pit Bull
Chihuahua Shorthair
Siamese Mix
Domestic Medium Hair Mix
Plott Hound Mix
Boxer/Great Dane
Lhasa Apso
Beagle/Treeing Walker Coonhound
Border Collie Mix
Border Terrier Mix
Boxer Mix
Cairn Terrier Mix
Dogo Argentino Mix
Beagle Mix
Chihuahua Shorthair/Dachshund
Miniature Schnauzer/Miniature Poodle
Pit Bull
Chihuahua Shorthair/Jack Russell Terrier
Tibetan Terrier Mix
Miniature Pinscher/Chihuahua Shorthair
Rat Terrier Mix
Dachshund Longhair
Dachshund/Chihuahua Shorthair
Maltese
Labrador Retriever/Rottweiler
Dachshund/Manchester Terrier
Plott Hound/Labrador Retriever
Chihuahua Shorthair/Rat Terrier
Siberian Husky
Australian Cattle Dog Mix
Yorkshire Terrier/Miniature Poodle
Catahoula/Labrador Retriever
Miniature Poodle Mix
Jack Russell Terrier/Pit Bull
Queensland Heeler/Shetland Sheepdog
Catahoula Mix
Dachshund Longhair Mix
Doberman Pinsch Mix
Dachshund/Jack Russell Terrier
Miniature Poodle/Miniature Schnauzer
Whippet Mix
Australian Shepherd Mix
English Pointer Mix
Miniature Schnauzer/Yorkshire Terrier
Labrador Retriever/Pit Bull
Great Dane
Chesa Bay Retr
German Shepherd
Chow Chow Mix
English Pointer
Basset Hound/Labrador Retriever
Airedale Terrier Mix
Labrador Retriever/Chow Chow
Beagle/German Shepherd
Manx Mix
Cocker Spaniel
Border Terrier/Chihuahua Shorthair
Chihuahua Longhair Mix
Jack Russell Terrier/Dachshund
Rottweiler Mix
Siberian Husky Mix
Cardigan Welsh Corgi/Cardigan Welsh Corgi
Domestic Shorthair
Shih Tzu
Labrador Retriever/Border Collie
Labrador Retriever/Great Dane
Shih Tzu/Miniature Poodle
Collie Smooth/Chow Chow
Cocker Spaniel Mix
Rottweiler/Labrador Retriever
German Shepherd/Siberian Husky
Dachshund
Border Collie/Labrador Retriever
Collie Smooth/Labrador Retriever
Plott Hound/Rhod Ridgeback
Pointer/Labrador Retriever
Anatol Shepherd/Great Pyrenees
Anatol Shepherd
Chinese Sharpei/Australian Cattle Dog
Akita/Pit Bull
American Bulldog Mix
Labrador Retriever
Jack Russell Terrier Mix
Pit Bull/Dogue De Bordeaux
Bernese Mountain Dog/Rottweiler
English Bulldog
Chihuahua Longhair/Italian Greyhound
Labrador Retriever/Blue Lacy
Dachshund/Catahoula
Dachshund Wirehair Mix
Blue Lacy/Pit Bull
Exotic Shorthair Mix
Labrador Retriever/Chinese Sharpei
Basset Hound
Blue Lacy/Collie Smooth
Black/Tan Hound Mix
Norfolk Terrier/Border Terrier
Scottish Terrier/Cairn Terrier
Boxer
Miniature Poodle
Doberman Pinsch
Devon Rex Mix
Treeing Walker Coonhound Mix
Australian Cattle Dog/Labrador Retriever
Yorkshire Terrier/Maltese
Rhod Ridgeback/Labrador Retriever
Australian Cattle Dog/Chinese Sharpei
Labrador Retriever/Plott Hound
German Shepherd/Collie Rough
Labrador Retriever/Black Mouth Cur
Snowshoe Mix
Chinese Sharpei/Airedale Terrier
Cardigan Welsh Corgi Mix
Harrier
Miniature Poodle/Dachshund
Australian Kelpie Mix
Harrier Mix
Basset Hound Mix
Mexican Hairless Mix
Redbone Hound Mix
Afghan Hound Mix
Border Collie/Greyhound
Swedish Vallhund Mix
Papillon/Border Collie
Labrador Retriever/German Shepherd
Dachshund Wirehair/Miniature Poodle
Labrador Retriever/Australian Cattle Dog
German Shepherd/Chow Chow
Pit Bull/Weimaraner
Yorkshire Terrier/Chihuahua Shorthair
West Highland/Chihuahua Shorthair
Border Collie/German Shepherd
Boxer/Australian Cattle Dog
Shiba Inu Mix
Beauceron Mix
Chinese Sharpei Mix
Pekingese Mix
Anatol Shepherd Mix
Catahoula/Pit Bull
Maine Coon Mix
Shih Tzu Mix
Schipperke Mix
Pointer/Boxer
Labrador Retriever/Standard Poodle
German Shepherd/Bull Terrier
Miniature Pinscher/Pomeranian
Chihuahua Shorthair/Pit Bull
Burmese
Redbone Hound/Anatol Shepherd
German Shepherd/Labrador Retriever
Australian Shepherd/Australian Cattle Dog
Boxer/Chow Chow
Chow Chow/Australian Kelpie
Great Pyrenees/Border Collie
Whippet/Chihuahua Shorthair
Domestic Medium Hair
Border Collie
Jack Russell Terrier/Australian Cattle Dog
Catahoula/Australian Shepherd
Collie Rough Mix
Staffordshire Mix
Silky Terrier Mix
Bruss Griffon Mix
Vizsla
Beagle/Pug
Border Terrier/Yorkshire Terrier
Pug/Beagle
Boerboel Mix
Golden Retriever Mix
Doberman Pinsch/Vizsla
Bengal Mix
Bichon Frise Mix
German Shepherd/Akita
Miniature Pinscher Mix
Pit Bull/Blue Lacy
Pointer/Collie Smooth
Yorkshire Terrier
American Staffordshire Terrier/Labrador Retriever
Manchester Terrier Mix
Rat Terrier/Cardigan Welsh Corgi
Border Collie/Chow Chow
English Setter Mix
Pomeranian Mix
Boxer/Pit Bull
Greater Swiss Mountain Dog Mix
Labrador Retriever/Doberman Pinsch
Dachshund/Bull Terrier
American Shorthair Mix
Pit Bull/Boxer
Bull Terrier
Pembroke Welsh Corgi Mix
Jack Russell Terrier
Toy Poodle/Maltese
Bullmastiff Mix
Smooth Fox Terrier Mix
Lhasa Apso Mix
Shih Tzu/Maltese
Scottish Terrier/Miniature Poodle
Pug Mix
Beagle/Labrador Retriever
American Pit Bull Terrier/Chinese Sharpei
Pekingese
Rottweiler/Rhod Ridgeback
Old English Bulldog Mix
Ibizan Hound Mix
Boston Terrier Mix
Dachshund/Whippet
Chihuahua Shorthair/Whippet
Boxer/Beagle
Brittany/Labrador Retriever
Black Mouth Cur/Australian Cattle Dog
Labrador Retriever/Anatol Shepherd
Newfoundland/Australian Cattle Dog
Parson Russell Terrier Mix
Rhod Ridgeback Mix
Bernese Mountain Dog Mix
Labrador Retriever/Labrador Retriever
Dachshund/Shih Tzu
Parson Russell Terrier/Chihuahua Shorthair
Chow Chow/Australian Cattle Dog
Pit Bull/Mastiff
Newfoundland Mix
American Pit Bull Terrier
Miniature Schnauzer
Rottweiler
Labrador Retriever/Pembroke Welsh Corgi
Carolina Dog Mix
Doberman Pinsch/German Shepherd
Great Pyrenees
Mastiff/Pit Bull
Labrador Retriever/Boxer
English Bulldog Mix
Blue Lacy/American Bulldog
Australian Shepherd
St. Bernard Rough Coat Mix
Staffordshire/Boston Terrier
Maltese/Miniature Poodle
Siberian Husky/Labrador Retriever
Chihuahua Shorthair/Pomeranian
Miniature Poodle/English Cocker Spaniel
Great Pyrenees/Australian Cattle Dog
German Shorthair Pointer Mix
Pit Bull/Australian Cattle Dog
Bull Terrier Mix
Siberian Husky/German Shepherd
Basenji/Chihuahua Longhair
Dachshund/Rat Terrier
Cocker Spaniel/Miniature Poodle
Basset Hound/English Cocker Spaniel
Labrador Retriever/Siberian Husky
Manchester Terrier/Norfolk Terrier
Flat Coat Retriever/Golden Retriever
Bichon Frise/Miniature Poodle
Beagle/Basset Hound
Bloodhound Mix
Affenpinscher Mix
Himalayan Mix
Great Dane/Staffordshire
Border Collie/Australian Cattle Dog
Akita Mix
Norwich Terrier Mix
Labrador Retriever/Australian Shepherd
Manchester Terrier/Jack Russell Terrier
Greyhound Mix
Pit Bull/Boston Terrier
Ragdoll Mix
Greyhound
Boykin Span Mix
Great Dane/Pit Bull
Chihuahua Shorthair/Boxer
Chihuahua Shorthair/Miniature Pinscher
Papillon/Chihuahua Shorthair
Dachshund Longhair/Chihuahua Shorthair
Bernese Mountain Dog
Chesa Bay Retr Mix
Jack Russell Terrier/Boston Terrier
Norfolk Terrier Mix
Pointer/Catahoula
Pit Bull/Cardigan Welsh Corgi
Chihuahua Longhair
Mastiff Mix
German Shepherd/Border Collie
Australian Shepherd/Rhod Ridgeback
Chihuahua Shorthair/Cardigan Welsh Corgi
Australian Kelpie/Pit Bull
Chow Chow/Basset Hound
Bruss Griffon/Yorkshire Terrier
American Bulldog/Labrador Retriever
Pekingese/Jack Russell Terrier
Weimaraner Mix
Flat Coat Retriever/Pit Bull
Skye Terrier Mix
Labrador Retriever/Great Pyrenees
Collie Smooth Mix
Shetland Sheepdog/Border Collie
Pembroke Welsh Corgi
Labrador Retriever/Beagle
Australian Cattle Dog
Miniature Schnauzer/Soft Coated Wheaten Terrier
Rottweiler/German Shepherd
Snowshoe/Ragdoll
German Shepherd/Australian Cattle Dog
Schnauzer Giant Mix
Chihuahua Shorthair/Pug
German Shepherd/Alaskan Husky
Dachshund/Pit Bull
Toy Poodle Mix
Pit Bull/St. Bernard Smooth Coat
Rat Terrier/Chihuahua Shorthair
Carolina Dog/Chihuahua Shorthair
Dachshund/Parson Russell Terrier
Shiba Inu/Dachshund
Australian Cattle Dog/Plott Hound
Alaskan Husky Mix
Greyhound/Dalmatian
Whippet/Australian Kelpie
Labrador Retriever/Queensland Heeler
Chihuahua Shorthair/Yorkshire Terrier
Dachshund/Harrier
Golden Retriever/Border Collie
Belgian Malinois Mix
Labrador Retriever/Catahoula
American Eskimo Mix
Italian Greyhound Mix
Australian Cattle Dog/Border Collie
Pit Bull/Catahoula
Miniature Poodle/Bichon Frise
Great Pyrenees/English Setter
Shetland Sheepdog
Weimaraner
Chihuahua Shorthair/Cairn Terrier
Labrador Retriever/Basset Hound
Miniature Pinscher
Boston Terrier
Bruss Griffon/Chihuahua Shorthair
Catahoula/Australian Cattle Dog
Irish Wolfhound Mix
Wire Hair Fox Terrier Mix
Siberian Husky/Anatol Shepherd
Chow Chow/Siberian Husky
Catahoula/Plott Hound
Dogo Argentino/Chinese Sharpei
Siamese
Chow Chow/Labrador Retriever
Landseer Mix
Domestic Medium Hair/Siamese
Australian Cattle Dog/Beagle
Norfolk Terrier/Cairn Terrier
Bombay Mix
Catahoula/Chow Chow
Australian Cattle Dog/German Shepherd
Papillon Mix
St. Bernard Smooth Coat Mix
Standard Schnauzer Mix
Australian Shepherd/Chow Chow
Pit Bull/Dachshund
English Springer Spaniel Mix
Alaskan Malamute/German Shepherd
West Highland Mix
Carolina Dog
Golden Retriever
Whippet/Shetland Sheepdog
French Bulldog/Chihuahua Shorthair
American Bulldog/Chinese Sharpei
Wire Hair Fox Terrier/Chihuahua Shorthair
Great Dane Mix
Bruss Griffon/Dachshund
Persian Mix
Golden Retriever/Whippet
Pug
Cocker Spaniel/Standard Poodle
Pit Bull/Chinese Sharpei
Brittany Mix
Dogo Argentino
Labrador Retriever/Pointer
Shih Tzu/Havanese
Cavalier Span
Great Pyrenees/Siberian Husky
Staffordshire
Doberman Pinsch/Border Collie
Dachshund Wirehair/Pbgv
Siamese/Domestic Shorthair
Border Terrier/Pug
Collie Smooth/Siberian Husky
Rat Terrier
Dachshund/Australian Kelpie
Akita
St. Bernard Smooth Coat/Anatol Shepherd
Jack Russell Terrier/Rat Terrier
German Shepherd/Pit Bull
Chihuahua Shorthair/Border Terrier
Chow Chow
Soft Coated Wheaten Terrier Mix
Pit Bull/Siberian Husky
Labrador Retriever/Australian Kelpie
Chihuahua Shorthair/Dachshund Wirehair
Kuvasz/Labrador Retriever
Norwich Terrier/Border Terrier
Boxer/Pointer
Blue Lacy/Beagle
Domestic Shorthair/Manx
Lhasa Apso/Dachshund
Labrador Retriever/American Bulldog
American Foxhound
Soft Coated Wheaten Terrier/Labrador Retriever
Dachshund Wirehair
Basset Hound/Beauceron
Pointer/Border Collie
Australian Cattle Dog/Anatol Shepherd
Labrador Retriever/Cocker Spaniel
Chihuahua Shorthair/Beagle
Staffordshire/English Bulldog
Cardigan Welsh Corgi/English Setter
Podengo Pequeno Mix
Leonberger Mix
Labrador Retriever/Redbone Hound
Miniature Poodle/Yorkshire Terrier
Basenji Mix
Bruss Griffon/Cairn Terrier
Chihuahua Shorthair/Chinese Sharpei
Yorkshire Terrier/Miniature Schnauzer
Labrador Retriever/Golden Retriever
Parson Russell Terrier
Labrador Retriever/Border Terrier
Australian Shepherd/Chihuahua Shorthair
Labrador Retriever/Vizsla
Miniature Poodle/Chihuahua Shorthair
Australian Cattle Dog/Pointer
Bengal
Australian Cattle Dog/Bloodhound
English Shepherd Mix
Cocker Spaniel/Labrador Retriever
Pit Bull/Dalmatian
Australian Shepherd/English Setter
Cornish Rex Mix
Miniature Schnauzer/Jack Russell Terrier
Border Collie/Canaan Dog
Pekingese/Miniature Poodle
Standard Poodle Mix
Black Mouth Cur/American Staffordshire Terrier
Australian Cattle Dog/Collie Smooth
German Shepherd/Boxer
Australian Cattle Dog/Queensland Heeler
Border Collie/Doberman Pinsch
Australian Cattle Dog/Alaskan Husky
Dutch Shepherd Mix
Yorkshire Terrier/Rat Terrier
German Shepherd/Mastiff
Jack Russell Terrier/Miniature Schnauzer
Dalmatian
American Foxhound/Labrador Retriever
Catahoula/American Bulldog
Chihuahua Shorthair/Wire Hair Fox Terrier
Balinese Mix
Dachshund/English Bulldog
Golden Retriever/Brittany
Australian Kelpie/Finnish Spitz
Dachshund Wirehair/Chihuahua Shorthair
Dalmatian/Australian Cattle Dog
Beagle/Chihuahua Shorthair
German Shepherd/Cardigan Welsh Corgi
English Coonhound Mix
Old English Sheepdog
Jindo Mix
American Bulldog
Chihuahua Longhair/Dachshund
Jack Russell Terrier/Pug
English Bulldog/Cairn Terrier
Plott Hound/Black/Tan Hound
Catahoula
Catahoula/American Pit Bull Terrier
Pomeranian/Jack Russell Terrier
Miniature Schnauzer/Labrador Retriever
Catahoula/Alaskan Husky
Chinese Sharpei
Golden Retriever/Finnish Spitz
Plott Hound
Basset Hound/Beagle
Welsh Terrier Mix
Collie Smooth/Jack Russell Terrier
Border Collie/English Pointer
Rhod Ridgeback/Plott Hound
German Shorthair Pointer
Javanese Mix
German Shepherd/Rottweiler
Australian Cattle Dog/Catahoula
Beagle/Staffordshire
Dachshund/Pembroke Welsh Corgi
Great Dane/German Shepherd
Australian Cattle Dog/Pit Bull
Finnish Spitz Mix
Boxer/Catahoula
Great Pyrenees/Standard Poodle
Lhasa Apso/Shih Tzu
Anatol Shepherd/Border Collie
Labrador Retriever/Rhod Ridgeback
Border Collie/Standard Schnauzer
Labrador Retriever/Beauceron
Flat Coat Retriever/Papillon
Field Spaniel Mix
Standard Poodle/Labrador Retriever
Keeshond Mix
Irish Setter/Pit Bull
Doberman Pinsch/Pit Bull
Pointer/Blue Lacy
Beagle/Australian Cattle Dog
Rat Terrier/Pug
Chihuahua Longhair/Maltese
Bull Terrier/Boxer
Jack Russell Terrier/Beagle
Pit Bull/Basset Hound
Picardy Sheepdog Mix
Patterdale Terr Mix
Pembroke Welsh Corgi/Brittany
Dalmatian Mix
Australian Shepherd/Anatol Shepherd
German Wirehaired Pointer Mix
Cocker Spaniel/Chihuahua Shorthair
Collie Rough/Pointer
Great Pyrenees/Anatol Shepherd
Vizsla/Catahoula
Golden Retriever/Great Pyrenees
Schipperke/Chihuahua Shorthair
German Shepherd/Catahoula
Rhod Ridgeback
Airedale Terrier/Miniature Schnauzer
Havanese Mix
Border Collie/Dachshund
Dachshund/English Foxhound
Cairn Terrier/Yorkshire Terrier
Redbone Hound/Redbone Hound
Norwich Terrier/Pug
British Shorthair
Bichon Frise
Pomeranian
Unknown Mix
Vizsla/Staffordshire
Beagle/Pointer
Jack Russell Terrier/Basenji
West Highland
Dachshund Longhair/Cardigan Welsh Corgi
Anatol Shepherd/Siberian Husky
Basenji/Chihuahua Shorthair
Chihuahua Longhair/Pomeranian
Pug/Chihuahua Shorthair
Dachshund Wirehair/Rat Terrier
Black/Tan Hound
Beagle/Dachshund
Boxer/Staffordshire
Boston Terrier/Dachshund
Bulldog Mix
Chihuahua Shorthair/Toy Fox Terrier
Pharaoh Hound Mix
Weimaraner/Labrador Retriever
Chow Chow/German Shepherd
Pit Bull/Border Terrier
Bearded Collie Mix
Toy Fox Terrier Mix
Canaan Dog/Pit Bull
Border Collie/Akita
Black Mouth Cur/Catahoula
Irish Terrier/Labrador Retriever
Catahoula/Chinese Sharpei
Whippet/Jack Russell Terrier
Pit Bull/Pit Bull
Boxer/American Staffordshire Terrier
Treeing Tennesse Brindle
Dachshund Wirehair/Miniature Schnauzer
Vizsla/Golden Retriever
Japanese Bobtail Mix
Yorkshire Terrier/Chihuahua Longhair
Boxer/English Bulldog
Tibetan Spaniel Mix
Standard Poodle
Italian Greyhound
Manchester Terrier/Toy Fox Terrier
Chihuahua Shorthair/Italian Greyhound
Australian Shepherd/Border Collie
American Pit Bull Terrier/Labrador Retriever
Catahoula/Pointer
Great Pyrenees/German Shepherd
Shih Tzu/Australian Shepherd
Dachshund/Labrador Retriever
Chow Chow/Cardigan Welsh Corgi
Maltese/Shih Tzu
Labrador Retriever/Greyhound
English Springer Spaniel/Beagle
Basenji/Chow Chow
French Bulldog Mix
English Springer Spaniel
Pointer
British Shorthair Mix
Australian Shepherd/Labrador Retriever
Cane Corso Mix
English Bulldog/American Bulldog
Australian Cattle Dog/Dalmatian
Havanese
Harrier/Catahoula
German Shorthair Pointer/Australian Cattle Dog
Australian Kelpie
Boston Terrier/Chihuahua Shorthair
Great Dane/Boxer
Chihuahua Shorthair/Basset Hound
American Foxhound/Pointer
Shih Tzu/Pekingese
Catahoula/Cardigan Welsh Corgi
German Shepherd/Collie Smooth
Chihuahua Longhair/West Highland
Pbgv Mix
Shetland Sheepdog/Pomeranian
Chow Chow/English Cocker Spaniel
Yorkshire Terrier/Pomeranian
Boykin Span/Dachshund
Golden Retriever/Chow Chow
Boxer/Labrador Retriever
Labrador Retriever/English Pointer
Chihuahua Shorthair/Miniature Schnauzer
Glen Of Imaal Mix
Border Collie/Great Pyrenees
Jack Russell Terrier/Chihuahua Shorthair
Cardigan Welsh Corgi/Australian Cattle Dog
Australian Terrier Mix
German Shepherd/Anatol Shepherd
Canaan Dog Mix
Pixiebob Shorthair Mix
Great Pyrenees/Labrador Retriever
Shih Tzu/Miniature Schnauzer
American Staffordshire Terrier
Miniature Poodle/Labrador Retriever
Pit Bull/Chihuahua Shorthair
Miniature Schnauzer/Queensland Heeler
English Foxhound Mix
Labrador Retriever/Miniature Poodle
Pembroke Welsh Corgi/Pit Bull
Labrador Retriever/Dachshund
Presa Canario Mix
Australian Cattle Dog/Pembroke Welsh Corgi
Manchester Terrier/Chihuahua Shorthair
Soft Coated Wheaten Terrier
Chinese Crested Mix
Cane Corso
Pit Bull/American Foxhound
Labrador Retriever/Black/Tan Hound
Alaskan Husky/German Shepherd
Beagle/Manchester Terrier
Border Terrier/Shih Tzu
Pit Bull/Rottweiler
Black Mouth Cur/Boxer
Chinese Sharpei/Border Collie
Dutch Shepherd/Anatol Shepherd
Staffordshire/Beagle
Australian Cattle Dog/Boxer
Yorkshire Terrier/Toy Poodle
Neapolitan Mastiff Mix
Bedlington Terr Mix
Pug/Italian Greyhound
Border Collie/Parson Russell Terrier
Catahoula/Black Mouth Cur
Manchester Terrier/Australian Kelpie
Staffordshire/Bull Terrier
Rottweiler/Chow Chow
American Bulldog/Pointer
Nova Scotia Duck Tolling Retriever/Golden Retriever
Lhasa Apso/Cairn Terrier
American Pit Bull Terrier/Catahoula
Australian Cattle Dog/German Shorthair Pointer
Wirehaired Pointing Griffon Mix
German Shepherd/Pembroke Welsh Corgi
Miniature Poodle/Cocker Spaniel
Feist Mix
Chow Chow/Border Collie
Carolina Dog/Pit Bull
Pointer/Australian Cattle Dog
Standard Schnauzer
Staffordshire/Blue Lacy
Cocker Spaniel/Golden Retriever
Tibetan Terrier/Lhasa Apso
Whippet/Labrador Retriever
Great Pyrenees/Boxer
Bloodhound
Border Terrier/Miniature Poodle
Border Terrier/Rat Terrier
Boxer/American Bulldog
Dachshund Longhair/Cocker Spaniel
Belgian Sheepdog
Pbgv
Akita/Australian Cattle Dog
Samoyed Mix
Norfolk Terrier/Yorkshire Terrier
Otterhound Mix
Black Mouth Cur/Labrador Retriever
Australian Cattle Dog/Cardigan Welsh Corgi
Dachshund Longhair/Cairn Terrier
Boxer/Harrier
Maltese/Yorkshire
Labrador Retriever/Jack Russell Terrier
Leonberger
Skye Terrier/Miniature Poodle
Cocker Spaniel/Chihuahua Longhair
Queensland Heeler/Border Collie
Blue Lacy/Great Dane
Boxer/Chinese Sharpei
English Coonhound/Italian Greyhound
Dachshund Longhair/Australian Shepherd
Alaskan Husky/Australian Shepherd
Norfolk Terrier/Dachshund Wirehair
Anatol Shepherd/Catahoula
Rat Terrier/Beagle
Golden Retriever/Standard Poodle
Tonkinese Mix
Labrador Retriever/Boston Terrier
Welsh Springer Spaniel
Entlebucher Mix
Cavalier Span Mix
Dachshund/Australian Cattle Dog
German Shepherd/Black/Tan Hound
Lhasa Apso/West Highland
Pointer/American Pit Bull Terrier
Beagle/Cocker Spaniel
Beagle/Black Mouth Cur
English Coonhound/Border Collie
American Bulldog/Schnauzer Giant
Dogo Argentino/Labrador Retriever
German Shepherd/Great Dane
Weimaraner/Pit Bull
Basset Hound/English Pointer
Anatol Shepherd/Redbone Hound
Manchester Terrier/Dachshund
Border Collie/Queensland Heeler
Jack Russell Terrier/Pointer
Australian Cattle Dog/Chow Chow
Boxer/Redbone Hound
Chihuahua Shorthair/Boston Terrier
Australian Cattle Dog/Rat Terrier
Bruss Griffon
Basset Hound/Pit Bull
Dachshund Longhair/Pembroke Welsh Corgi
Bull Terrier Miniature
Border Collie/Boxer
Queensland Heeler/Pit Bull
Miniature Poodle/Maltese
Collie Smooth/Golden Retriever
Boxer/Black Mouth Cur
Wire Hair Fox Terrier
Miniature Poodle/Pomeranian
Pit Bull/German Shepherd
Pug/Labrador Retriever
Border Collie/Whippet
Chow Chow/Golden Retriever
Jack Russell Terrier/Basset Hound
Pomeranian/Schipperke
Anatol Shepherd/Australian Cattle Dog
Australian Cattle Dog/Collie Rough
Australian Shepherd/Dachshund
Shiba Inu
Chihuahua Shorthair/Shih Tzu
Pug/Border Terrier
Black Mouth Cur/German Shepherd
Pit Bull/Border Collie
Jack Russell Terrier/Italian Greyhound
Dogue De Bordeaux Mix
Pug/Pomeranian
Chihuahua Shorthair/German Shepherd
Border Terrier/Miniature Schnauzer
Pomeranian/Chihuahua Longhair
Basenji/Australian Cattle Dog
Basenji/Jack Russell Terrier
Papillon/Skye Terrier
Dogue De Bordeaux/American Bulldog
Border Collie/Anatol Shepherd
Airedale Terrier/Labrador Retriever
Scottish Terrier/Basset Hound
Chinese Crested/Papillon
English Coonhound/Australian Cattle Dog
German Shepherd/Nova Scotia Duck Tolling Retriever
Miniature Poodle/Australian Cattle Dog
English Bulldog/American Staffordshire Terrier
St. Bernard Smooth Coat
Pointer/Bull Terrier
Standard Schnauzer/Border Terrier
Dachshund Wirehair/Norfolk Terrier
Yorkshire Terrier/Norfolk Terrier
Doberman Pinsch/Australian Cattle Dog
Chihuahua Shorthair/Lhasa Apso
Toy Poodle
Sphynx
Rottweiler/Beagle
Manx/Domestic Shorthair
Australian Kelpie/Blue Lacy
Australian Kelpie/Australian Shepherd
Domestic Longhair/Persian
Shih Tzu/Norfolk Terrier
Bluetick Hound Mix
Rat Terrier/Miniature Poodle
Pug/Staffordshire
Belgian Malinois/Australian Shepherd
Collie Rough/Australian Cattle Dog
Cairn Terrier/Dachshund
Ocicat Mix
Toy Poodle/Yorkshire Terrier
Miniature Poodle/Havanese
Border Collie/Australian Shepherd
Border Terrier
Black Mouth Cur
Golden Retriever/Pembroke Welsh Corgi
Beagle/American Staffordshire Terrier
Chihuahua Shorthair/Welsh Terrier
Australian Cattle Dog/Parson Russell Terrier
Scottish Terrier Mix
Chihuahua Shorthair/Shetland Sheepdog
Yorkshire Terrier/Cairn Terrier
Alaskan Malamute Mix
Siberian Husky/Australian Shepherd
Alaskan Malamute/Border Collie
Sealyham Terr Mix
Blue Lacy/Australian Kelpie
Australian Kelpie/Labrador Retriever
American Eskimo
Doberman Pinsch/Labrador Retriever
Abyssinian Mix
Wire Hair Fox Terrier/German Shepherd
German Shepherd/Golden Retriever
Pembroke Welsh Corgi/Australian Shepherd
Border Collie/Pointer
Siberian Husky/Australian Cattle Dog
Mastiff/Boxer
Cardigan Welsh Corgi/Pointer
Black/Tan Hound/Black Mouth Cur
Jack Russell Terrier/Labrador Retriever
Dachshund/Basset Hound
Dachshund Wirehair/Cairn Terrier
Basset Hound/Australian Cattle Dog
German Shepherd/Redbone Hound
Labrador Retriever/Dalmatian
Labrador Retriever/Collie Smooth
Airedale Terrier
Pit Bull/Pointer
Collie Rough
Italian Greyhound/Chihuahua Shorthair
Munchkin Longhair Mix
Australian Shepherd/Siberian Husky
Chihuahua Shorthair/French Bulldog
Domestic Longhair/Rex
Cardigan Welsh Corgi/Beagle
Australian Shepherd/Nova Scotia Duck Tolling Retriever
Dachshund/Belgian Malinois
English Springer Spaniel/Cardigan Welsh Corgi
Whippet/Dachshund
Harrier/Pointer
Collie Smooth
Catahoula/Staffordshire
Dachshund Wirehair/Border Terrier
Papillon/Pomeranian
Japanese Chin Mix
Black Mouth Cur/Basset Hound
Maine Coon
Pembroke Welsh Corgi/Chihuahua Shorthair
Italian Greyhound/Beagle
Akita/Siberian Husky
Beagle/Boston Terrier
Tibetan Spaniel
Cane Corso/Mastiff
Soft Coated Wheaten Terrier/Standard Poodle
Miniature Schnauzer/Maltese
Wire Hair Fox Terrier/Beagle
Bull Terrier/Pit Bull
Staffordshire/French Bulldog
Catahoula/Anatol Shepherd
Shih Tzu/Cocker Spaniel
Shih Tzu/Dachshund
Himalayan
Patterdale Terr/Chihuahua Shorthair
Golden Retriever/Akita
Miniature Schnauzer/Cairn Terrier
Boston Terrier/Pug
Maltese/Yorkshire Terrier
Chihuahua Shorthair/Pekingese
Chihuahua Shorthair/Manchester Terrier
Golden Retriever/Australian Shepherd
Chihuahua Shorthair/Schipperke
Catahoula/German Shepherd
Border Collie/Great Dane
Cairn Terrier/Miniature Schnauzer
American Staffordshire Terrier/French Bulldog
Pembroke Welsh Corgi/Golden Retriever
Shetland Sheepdog/Keeshond
Mastiff/Rottweiler
Plott Hound/Carolina Dog
Jack Russell Terrier/Dachshund Wirehair
Carolina Dog/Australian Cattle Dog
Golden Retriever/Dachshund
Australian Shepherd/Australian Kelpie
Pit Bull/Bulldog
Great Pyrenees/Rottweiler
Border Collie/Mastiff
Labrador Retriever/Collie Rough
Miniature Schnauzer/Chihuahua Shorthair
Australian Cattle Dog/Bull Terrier
Newfoundland/Border Collie
Lhasa Apso/Yorkshire Terrier
Nova Scotia Duck Tolling Retriever
Cairn Terrier/Chihuahua Longhair
Flat Coat Retriever/German Shepherd
Border Terrier/Dachshund Wirehair
Australian Cattle Dog/Staffordshire
American Pit Bull Terrier/American Pit Bull Terrier
Labrador Retriever/St. Bernard Rough Coat
Catahoula/Border Collie
Maltese/Toy Poodle
Pekingese/Chihuahua Shorthair
Border Terrier/Affenpinscher
Cavalier Span/Jack Russell Terrier
Akita/Chow Chow
Cardigan Welsh Corgi/Miniature Pinscher
Golden Retriever/German Shepherd
Shetland Sheepdog/Chihuahua Longhair
Doberman Pinsch/Rottweiler
Jack Russell Terrier/Whippet
Dachshund/Pug
Saluki/Labrador Retriever
Queensland Heeler/Basset Hound
Irish Terrier Mix
Standard Schnauzer/Toy Poodle
Rottweiler/Pit Bull
Border Collie/Pit Bull
Catahoula/Great Dane
Chinese Sharpei/Pit Bull
Norfolk Terrier
Turkish Van Mix
Great Dane/Labrador Retriever
Whippet/Beagle
Staffordshire/Boxer
Cairn Terrier/Scottish Terrier
St. Bernard Rough Coat/Standard Schnauzer
Pointer/Queensland Heeler
Border Terrier/Bruss Griffon
Hovawart Mix
Shiba Inu/Siberian Husky
Pit Bull/English Bulldog
Dachshund/Miniature Pinscher
German Shepherd/Chinese Sharpei
Catahoula/Beagle
Cardigan Welsh Corgi/Jack Russell Terrier
Norfolk Terrier/Dachshund
American Pit Bull Terrier/Boxer
Miniature Poodle/Golden Retriever
Labrador Retriever/Chesa Bay Retr
Norwegian Elkhound Mix
Domestic Shorthair/Domestic Medium Hair
Dachshund/Bloodhound
Treeing Walker Coonhound/Labrador Retriever
Chinese Sharpei/Great Dane
American Pit Bull Terrier/Pointer
Papillon
Golden Retriever/Pit Bull
Beagle/Standard Poodle
Miniature Schnauzer/Lhasa Apso
Golden Retriever/Labrador Retriever
Canaan Dog/Redbone Hound
German Shepherd/Greyhound
Dachshund/German Pinscher
Norwegian Forest Cat Mix
Siamese/Japanese Bobtail
Flat Coat Retriever/Australian Cattle Dog
Plott Hound/Blue Lacy
Jack Russell Terrier/Cairn Terrier
Jack Russell Terrier/Shih Tzu
Queensland Heeler/Dachshund
Black Mouth Cur/Staffordshire
Finnish Spitz/Dachshund
Labrador Retriever/American Pit Bull Terrier
Collie Rough/Pembroke Welsh Corgi
Chihuahua Shorthair/Cocker Spaniel
Great Pyrenees/Pointer
Australian Shepherd/Parson Russell Terrier
Pit Bull/Chow Chow
Queensland Heeler
Chinese Sharpei/Labrador Retriever
English Bulldog/Boxer
Great Dane/Australian Cattle Dog
Dachshund Wirehair/Chihuahua Longhair
Dachshund Longhair/Miniature Schnauzer
Shetland Sheepdog/Dachshund Longhair
Great Dane/Mastiff
Australian Shepherd/Boxer
Border Terrier/Soft Coated Wheaten Terrier
American Bulldog/Great Pyrenees
Catahoula/Bulldog
St. Bernard Rough Coat/Labrador Retriever
Labrador Retriever/Staffordshire
Australian Cattle Dog/American Foxhound
Jack Russell Terrier/Papillon
Soft Coated Wheaten Terrier/Yorkshire Terrier
Saluki
Redbone Hound/Labrador Retriever
Rat Terrier/Boston Terrier
Bullmastiff
Yorkshire Terrier/Parson Russell Terrier
Chihuahua Longhair/Cairn Terrier
Beagle/Boxer
Australian Cattle Dog/Akita
American Bulldog/Mastiff
Pharaoh Hound/Border Collie
Domestic Shorthair/Siamese
Plott Hound/Pit Bull
Beagle/Queensland Heeler
Cymric Mix
Labrador Retriever/Newfoundland
German Pinscher/Whippet
Rat Terrier/Australian Cattle Dog
Bulldog/Pit Bull
Port Water Dog Mix
American Bulldog/Pit Bull
Blue Lacy/Labrador Retriever
Devon Rex
Mastiff/Chinese Sharpei
Treeing Cur Mix
Rat Terrier/Queensland Heeler
Beagle/Cavalier Span
Brittany/Chihuahua Shorthair
Australian Kelpie/American Pit Bull Terrier
Boxer/Jack Russell Terrier
Norwich Terrier/Cairn Terrier
Cardigan Welsh Corgi/German Shepherd
Lhasa Apso/Miniature Schnauzer
Yorkshire Terrier/Dachshund Wirehair
Cairn Terrier/Shih Tzu
Dalmatian/Labrador Retriever
Greyhound/Labrador Retriever
Beagle/Jack Russell Terrier
Blue Lacy
Pointer/Pit Bull
Shih Tzu/Cardigan Welsh Corgi
Boxer/Boston Terrier
Saluki Mix
Boston Terrier/Pit Bull
Border Collie/Catahoula
Pit Bull/Plott Hound
Beagle/Chinese Sharpei
Dachshund/Yorkshire Terrier
Dachshund Longhair/Chihuahua Longhair
Border Terrier/Labrador Retriever
Pug/Pit Bull
Miniature Pinscher/Australian Cattle Dog
Manx
Anatol Shepherd/Australian Shepherd
Pit Bull/Black Mouth Cur
Cardigan Welsh Corgi/Cairn Terrier
Australian Shepherd/Cocker Spaniel
Dachshund Wirehair/Standard Poodle
Lhasa Apso/Cocker Spaniel
Whippet/Miniature Pinscher
Pekingese/Lhasa Apso
Border Collie/Basenji
Great Pyrenees/Catahoula
Beagle/Australian Kelpie
Presa Canario
Bulldog
Black Mouth Cur/Blue Lacy
Cocker Spaniel/Australian Shepherd
Chihuahua Longhair/Papillon
Cardigan Welsh Corgi/Chihuahua Longhair
Border Collie/Plott Hound
Dachshund/Shetland Sheepdog
Australian Cattle Dog/Golden Retriever
Brittany
Australian Cattle Dog/Basenji
Dachshund/Miniature Poodle
Boxer/American Pit Bull Terrier
Boxer/Miniature Poodle
Queensland Heeler/Chihuahua Shorthair
Labrador Retriever/Standard Schnauzer
Carolina Dog/Labrador Retriever
Anatol Shepherd/Labrador Retriever
Pekingese/Pug
Siberian Husky/Border Collie
Chihuahua Shorthair/Australian Cattle Dog
Cardigan Welsh Corgi/Pit Bull
Belgian Sheepdog Mix
Labrador Retriever/Spanish Water Dog
Beagle/Pit Bull
Pointer/Brittany
Cardigan Welsh Corgi/Rat Terrier
Pit Bull/Queensland Heeler
Chinese Crested/Chihuahua Longhair
Australian Shepherd/English Springer Spaniel
Pembroke Welsh Corgi/Dachshund
Snowshoe
Glen Of Imaal/Ibizan Hound
Pit Bull/Beagle
German Shepherd/Swedish Vallhund
Miniature Schnauzer/Scottish Terrier
Australian Kelpie/Alaskan Husky
German Pinscher Mix
Shetland Sheepdog/Basenji
German Wirehaired Pointer
Australian Cattle Dog/Great Pyrenees
Labrador Retriever/Flat Coat Retriever
Cairn Terrier/Border Collie
Belgian Tervuren/German Shepherd
Persian
German Shepherd/Doberman Pinsch
Whippet/Whippet
Rat Terrier/Basenji
Jack Russell Terrier/Miniature Poodle
American Foxhound Mix
Swedish Vallhund/Miniature Poodle
Miniature Poodle/Lhasa Apso
American Pit Bull Terrier/American Bulldog
Pointer/Rhod Ridgeback
Pit Bull/American Bulldog
Manx/Domestic Longhair
Shetland Sheepdog/Cavalier Span
Bulldog/Boston Terrier
Queensland Heeler/Great Dane
Golden Retriever/Beagle
Labrador Retriever/Mastiff
Mastiff/Labrador Retriever
Cardigan Welsh Corgi/Australian Kelpie
Boxer/Akita
Anatol Shepherd/Collie Rough
Miniature Schnauzer/West Highland
Australian Kelpie/Chihuahua Shorthair
Maltese/Cocker Spaniel
Collie Rough/Labrador Retriever
Great Pyrenees/Pit Bull
Shih Tzu/Yorkshire Terrier
Bull Terrier Miniature Mix
Pug/Schipperke
Dachshund/Cardigan Welsh Corgi
Australian Kelpie/Whippet
Dachshund Wirehair/Toy Poodle
Collie Rough/Australian Shepherd
Chihuahua Shorthair/Finnish Spitz
Border Terrier/Dachshund
Boerboel
Cardigan Welsh Corgi/Australian Shepherd
Rhod Ridgeback/German Shepherd
Pug/Pekingese
Beagle/Rat Terrier
Chihuahua Longhair/Pekingese
Dachshund Longhair/Pomeranian
Pharaoh Hound
Border Terrier/West Highland
Anatol Shepherd/German Shepherd
Border Terrier/Cardigan Welsh Corgi
Boston Terrier/Beagle
West Highland/Cairn Terrier
Pointer/Harrier
Pit Bull/Rhod Ridgeback
American Eskimo/Border Collie
French Bulldog/Miniature Schnauzer
Pekingese/Dachshund
Newfoundland/Labrador Retriever
Chihuahua Shorthair/Affenpinscher
Akita/Labrador Retriever
Jack Russell Terrier/Border Collie
Manchester Terrier/Beagle
Miniature Schnauzer/Australian Cattle Dog
Bluetick Hound/Treeing Walker Coonhound
English Shepherd
Boxer/Rhod Ridgeback
Jack Russell Terrier/Cardigan Welsh Corgi
Black Mouth Cur/Dachshund
Chihuahua Longhair/Pug
Maltese/Border Terrier
Pit Bull/Flat Coat Retriever
Maltese/Jack Russell Terrier
Black/Tan Hound/Labrador Retriever
Chihuahua Shorthair/Queensland Heeler
Spanish Mastiff Mix
Catahoula/Rottweiler
Cocker Spaniel/Dachshund
German Shepherd/Australian Shepherd
Chinese Sharpei/Basset Hound
Labrador Retriever/American Staffordshire Terrier
Boston Terrier/Miniature Schnauzer
Harrier/Labrador Retriever
Dutch Shepherd
Pit Bull/Pug
Dachshund/Chinese Sharpei
Boxer/Bulldog
Plott Hound/Australian Cattle Dog
St. Bernard Rough Coat/Border Collie
Black/Tan Hound/German Shepherd
Rhod Ridgeback/Pit Bull
Australian Cattle Dog/Rhod Ridgeback
Black Mouth Cur/Mastiff
Greyhound/Great Dane
Newfoundland/Queensland Heeler
Lowchen Mix
Whippet/Australian Cattle Dog
Pomeranian/Chihuahua Shorthair
Pomeranian/Border Terrier
Labrador Retriever/Weimaraner
Pit Bull/Bull Terrier
Siberian Husky/Pit Bull
Chihuahua Longhair/Cardigan Welsh Corgi
Pembroke Welsh Corgi/German Shepherd
Rottweiler/Australian Cattle Dog
Australian Shepherd/Rottweiler
Rottweiler/Basset Hound
Cavalier Span/Papillon
Pharaoh Hound/Australian Cattle Dog
Australian Shepherd/Beagle
Australian Cattle Dog/Belgian Malinois
Japanese Chin
Beagle/Pembroke Welsh Corgi
Catahoula/Boxer
Russian Blue
Border Collie/Beagle
Border Terrier/Chihuahua Longhair
Rat Terrier/Chihuahua Longhair
Jack Russell Terrier/American Staffordshire Terrier
Australian Cattle Dog/Australian Shepherd
Alaskan Malamute/Australian Kelpie
Border Collie/Shetland Sheepdog
Yorkshire Terrier/Border Terrier
Maltese/Papillon
Shih Tzu/Affenpinscher
Australian Cattle Dog/Dachshund
German Shepherd/Alaskan Malamute
Chihuahua Shorthair/Cavalier Span
Siberian Husky/Beagle
Irish Wolfhound/Great Dane
Staffordshire/Labrador Retriever
Belgian Tervuren Mix
Yorkshire Terrier/Bruss Griffon
English Bulldog/Pit Bull
Jack Russell Terrier/Cavalier Span
Australian Kelpie/Chinese Sharpei
English Bulldog/Beagle
Rat Terrier/Pointer
Dachshund/Cavalier Span
Basset Hound/Dachshund
Australian Cattle Dog/American Staffordshire Terrier
Catahoula/Whippet
Chihuahua Shorthair/Pembroke Welsh Corgi
Queensland Heeler/Pointer
Cardigan Welsh Corgi
Finnish Spitz
Dachshund/Dachshund
Bluetick Hound
Rat Terrier/Jack Russell Terrier
Norfolk Terrier/Chihuahua Shorthair
Havana Brown Mix
Australian Cattle Dog/Jack Russell Terrier
Irish Wolfhound/Australian Shepherd
Miniature Schnauzer/Shih Tzu
Maltese/Dachshund
French Bulldog
Irish Wolfhound/Great Pyrenees
Miniature Schnauzer/Whippet
Bullmastiff/Boxer
Shetland Sheepdog/Cardigan Welsh Corgi
Collie Rough/German Shepherd
Bull Terrier/Australian Kelpie
Belgian Malinois
Labrador Retriever/Alaskan Husky
Miniature Poodle/Shih Tzu
Basset Hound/Pointer
Alaskan Husky
Pekingese/Cavalier Span
Jack Russell Terrier/Unknown
Lhasa Apso/Havanese
American Eskimo/Australian Shepherd
Chihuahua Shorthair/Smooth Fox Terrier
Keeshond
Rat Terrier/Dachshund
Bull Terrier/Jack Russell Terrier
Ibizan Hound/Pit Bull
Golden Retriever/Australian Cattle Dog
Nova Scotia Duck Tolling Retriever Mix
American Staffordshire Terrier/American Bulldog
Lhasa Apso/Pbgv
Labrador Retriever/Harrier
Maltese/Chihuahua Shorthair
Akita/German Shepherd
Alaskan Malamute/Akita
Pointer/Chinese Sharpei
German Shepherd/Black Mouth Cur
Collie Rough/Chinese Sharpei
Dachshund/Havanese
Chow Chow/Chinese Sharpei
Pointer/Jack Russell Terrier
Australian Shepherd/Plott Hound
Shetland Sheepdog/Brittany
Alaskan Husky/Border Collie
Dachshund/American Staffordshire Terrier
Great Pyrenees/Collie Rough
Swiss Hound/Pit Bull
Rat Terrier/Pit Bull
Australian Shepherd/Pit Bull
Silky Terrier/Yorkshire Terrier
Flat Coat Retriever/Labrador Retriever
Cardigan Welsh Corgi/Cocker Spaniel
St. Bernard Rough Coat
Ragdoll
Newfoundland/Great Pyrenees
Standard Poodle/Whippet
Pointer/Anatol Shepherd
Dachshund/Greyhound
Australian Kelpie/Shiba Inu
Redbone Hound
Shih Tzu/Cavalier Span
St. Bernard Rough Coat/German Shepherd
Cocker Spaniel/Toy Poodle
English Bulldog/Dachshund
Great Pyrenees/Australian Shepherd
Finnish Spitz/Chow Chow
Toy Fox Terrier/Dachshund
Beagle/Whippet
Boxer/Mastiff
Dachshund/Chihuahua Longhair
Domestic Longhair/Russian Blue
Welsh Springer Spaniel Mix
Pointer/Staffordshire
Papillon/Australian Cattle Dog
Miniature Pinscher/Maltese
Siberian Husky/Catahoula
Jack Russell Terrier/Welsh Terrier
Vizsla/Rhod Ridgeback
English Cocker Spaniel Mix
Australian Shepherd/Alaskan Malamute
American Bulldog/American Staffordshire Terrier
Cairn Terrier/Affenpinscher
Domestic Shorthair/British Shorthair
Whippet/Borzoi
American Staffordshire Terrier/Plott Hound
Chihuahua Shorthair/Parson Russell Terrier
Spinone Italiano Mix
Dachshund/German Shepherd
Alaskan Malamute
Border Collie/Rottweiler
Border Collie/Alaskan Husky
Boston Terrier/Labrador Retriever
Dalmatian/Boxer
Pembroke Welsh Corgi/Basset Hound
Cairn Terrier/Miniature Poodle
Beauceron
Miniature Poodle/Italian Greyhound
Boxer/Neapolitan Mastiff
French Bulldog/English Bulldog
Vizsla/Boxer
German Shepherd/Australian Kelpie
Boxer/German Shepherd
Whippet/Rat Terrier
Labrador Retriever/American Foxhound
Miniature Poodle/Cairn Terrier
Cocker Spaniel/Shetland Sheepdog
Boxer/Anatol Shepherd
Collie Smooth/Boxer
Chihuahua Longhair/Rat Terrier
Boxer/Cardigan Welsh Corgi
American Bulldog/Blue Lacy
Miniature Schnauzer/Border Terrier
Jindo/Labrador Retriever
American Bulldog/English Bulldog
Bruss Griffon/Pug
Chow Chow/Irish Setter
Vizsla/Labrador Retriever
Basenji/Rhod Ridgeback
Mastiff
Dachshund Longhair/Miniature Poodle
Scottish Fold Mix
Chihuahua Shorthair/Papillon
Vizsla/Dachshund
Chinese Sharpei/American Bulldog
Chinese Sharpei/Boxer
Pit Bull/Carolina Dog
Dogue De Bordeaux/Labrador Retriever
Harrier/Pit Bull
Treeing Walker Coonhound
Great Pyrenees/Golden Retriever
Akita/Border Collie
Boykin Span
Beagle/Cardigan Welsh Corgi
American Wirehair Mix
Dalmatian/Basset Hound
Nova Scotia Duck Tolling Retriever/Border Collie
Chihuahua Shorthair/Basenji
Old English Bulldog
Border Collie/Jack Russell Terrier
Australian Shepherd/Dalmatian
Miniature Pinscher/Dachshund
Plott Hound/Bull Terrier
Siberian Husky/Rottweiler
Dachshund/Swedish Vallhund
Great Dane/Boerboel
Labrador Retriever/Irish Setter
Norfolk Terrier/Standard Poodle
German Shepherd/Weimaraner
Munchkin Shorthair Mix
Coton De Tulear Mix
Chinese Sharpei/Bull Terrier
Labrador Retriever/Alaskan Malamute
Catahoula/Jack Russell Terrier
Belgian Malinois/German Shepherd
German Shepherd/Basenji
French Bulldog/Pug
Basset Hound/Golden Retriever
Great Pyrenees/St. Bernard Rough Coat
Bull Terrier/Border Collie
Australian Cattle Dog/Vizsla
Boston Terrier/Pembroke Welsh Corgi
Border Collie/English Springer Spaniel
Mastiff/Cane Corso
Blue Lacy/Weimaraner
Rat Terrier/English Pointer
American Bulldog/Basset Hound
Beagle/Vizsla
Miniature Pinscher/Whippet
Boxer/Dogue De Bordeaux
Dutch Shepherd/Mastiff
Picardy Sheepdog
Border Collie/Siberian Husky
Soft Coated Wheaten Terrier/Chihuahua Shorthair
Blue Lacy/Australian Cattle Dog
Queensland Heeler/Parson Russell Terrier
Welsh Terrier/Wire Hair Fox Terrier
Labrador Retriever/Bloodhound
German Shepherd/English Coonhound
Pembroke Welsh Corgi/Australian Cattle Dog
Pointer/Ibizan Hound
Rat Terrier/Pembroke Welsh Corgi
Labrador Retriever/German Shorthair Pointer
Cocker Spaniel/Beagle
Samoyed
Cocker Spaniel/Dachshund Longhair
Cairn Terrier/Border Terrier
Scottish Terrier
Airedale Terrier/Irish Terrier
Chihuahua Longhair/Chihuahua Shorthair
German Shorthair Pointer/Brittany
Boxer/Doberman Pinsch
Flat Coat Retriever/Chow Chow
Wire Hair Fox Terrier/Golden Retriever
Smooth Fox Terrier/Jack Russell Terrier
Mastiff/Dutch Shepherd
Boston Terrier/Pointer
Kuvasz Mix
Staffordshire/Australian Cattle Dog
Angora/Persian
Pit Bull/Alaskan Husky
Yorkshire Terrier/Shih Tzu
Boxer/Queensland Heeler
Brittany/Collie Rough
Black Mouth Cur/Rhod Ridgeback
Yorkshire Terrier/Chinese Crested
Jack Russell Terrier/Maltese
Treeing Walker Coonhound/Australian Cattle Dog
Rhod Ridgeback/Mastiff
Pomeranian/American Eskimo
Rhod Ridgeback/Harrier
Cardigan Welsh Corgi/Labrador Retriever
Golden Retriever/Cocker Spaniel
Australian Cattle Dog/English Coonhound
Australian Cattle Dog/Pug
Smooth Fox Terrier/Rat Terrier
Dachshund Stan Mix
Rottweiler/Doberman Pinsch
Bruss Griffon/Chihuahua Longhair
Toy Poodle/Miniature Schnauzer
American Staffordshire Terrier/Rhod Ridgeback
Australian Kelpie/Beagle
Pit Bull/Anatol Shepherd
Snowshoe/Domestic Shorthair
Plott Hound/Mastiff
Australian Cattle Dog/Cairn Terrier
Labrador Retriever/Pug
Great Dane/Australian Shepherd
Manchester Terrier/Pembroke Welsh Corgi
Miniature Poodle/American Eskimo
Dachshund Wirehair/Yorkshire Terrier
Papillon/Yorkshire Terrier
Norwich Terrier/Yorkshire Terrier
Australian Kelpie/Miniature Pinscher
Pbgv/Jack Russell Terrier
Labrador Retriever/Whippet
Beagle/Border Terrier
Chihuahua Shorthair/Mexican Hairless
Collie Smooth/Saluki
Rat Terrier/Cairn Terrier
Dandie Dinmont
Australian Cattle Dog/Australian Kelpie
Bearded Collie
Oriental Sh Mix
Cairn Terrier/Dachshund Wirehair
Maltese/Lhasa Apso
Cardigan Welsh Corgi/Dachshund
Pit Bull/Doberman Pinsch
Miniature Poodle/Border Terrier
Standard Schnauzer/Standard Poodle
Dutch Shepherd/Boxer
Chihuahua Longhair/Cocker Spaniel
Jack Russell Terrier/Brittany
Chartreux Mix
German Shepherd/German Shepherd
Cairn Terrier/West Highland
Pembroke Welsh Corgi/Anatol Shepherd
German Wirehaired Pointer/Labrador Retriever
Rhod Ridgeback/Bullmastiff
Golden Retriever/Collie Rough
Coton De Tulear
Cocker Spaniel/Pembroke Welsh Corgi
Saluki/Doberman Pinsch
American Pit Bull Terrier/Pit Bull
Border Collie/American Staffordshire Terrier
Pomeranian/Shetland Sheepdog
Labrador Retriever/Brittany
Lowchen/Miniature Poodle
Miniature Pinscher/Pug
Great Pyrenees/Queensland Heeler
Lhasa Apso/Border Terrier
Chihuahua Shorthair/Border Collie
Chihuahua Longhair/Queensland Heeler
Bulldog/Australian Cattle Dog
Eng Toy Spaniel Mix
Boxer/Greyhound
American Bulldog/Boxer
Whippet/Treeing Cur
Chinese Sharpei/American Staffordshire Terrier
Soft Coated Wheaten Terrier/Border Terrier
Redbone Hound/Boxer
Pug/Boston Terrier
Chihuahua Longhair/Dachshund Longhair
Boxer/Border Collie
Norfolk Terrier/Bruss Griffon
Greater Swiss Mountain Dog
Catahoula/Irish Wolfhound
Siberian Husky/Chinese Sharpei
Rottweiler/Boxer
Chihuahua Shorthair/Swedish Vallhund
Pug/French Bulldog
Staffordshire/Bulldog
Black Mouth Cur/Siberian Husky
Boston Terrier/Australian Kelpie
Australian Shepherd/Greyhound
Labrador Retriever/Shiba Inu
Siberian Husky/Alaskan Malamute
Basset Hound/Australian Shepherd
Australian Cattle Dog/Boston Terrier
Chihuahua Shorthair/Cirneco
Pit Bull/Pharaoh Hound
Beagle/Harrier
Miniature Schnauzer/Pug
Dalmatian/Pointer
Pit Bull/Jack Russell Terrier
Australian Kelpie/Dachshund
Toy Poodle/Cocker Spaniel
Siberian Husky/Cardigan Welsh Corgi
Italian Greyhound/Cavalier Span
Manx/Siamese
Beagle/Parson Russell Terrier
Miniature Pinscher/Smooth Fox Terrier
Boston Terrier/Rat Terrier
Plott Hound/German Shepherd
Black/Tan Hound/Siberian Husky
Silky Terrier/Maltese
Border Collie/Dalmatian
Old English Sheepdog Mix
Mastiff/German Shepherd
Jack Russell Terrier/Yorkshire Terrier
Border Collie/Pembroke Welsh Corgi
Dutch Shepherd/Labrador Retriever
Australian Cattle Dog/Treeing Walker Coonhound
Miniature Poodle/Beagle
Border Terrier/Standard Schnauzer
German Shepherd/Smooth Fox Terrier
Queensland Heeler/German Shepherd
Jack Russell Terrier/Chihuahua Longhair
Harrier/German Shepherd
Australian Cattle Dog/Black Mouth Cur
Shiba Inu/Chinese Sharpei
Papillon/Miniature Poodle
Blue Lacy/Pointer
Alaskan Malamute/Alaskan Husky
Doberman Pinsch/Catahoula
Manchester Terrier/Labrador Retriever
English Bulldog/Staffordshire
Jack Russell Terrier/Manchester Terrier
Beagle/Australian Shepherd
Australian Shepherd/Collie Rough
Alaskan Malamute/Labrador Retriever
American Staffordshire Terrier/Jack Russell Terrier
Turkish Angora Mix
Toy Fox Terrier/Yorkshire Terrier
Bluetick Hound/Australian Kelpie
Australian Kelpie/Rat Terrier
Australian Shepherd/Feist
Manchester Terrier/Chihuahua Longhair
Anatol Shepherd/Mastiff
Chihuahua Longhair/Jack Russell Terrier
Great Dane/Anatol Shepherd
Parson Russell Terrier/Beagle
Australian Shepherd/Brittany
Schnauzer Giant/Labrador Retriever
Shiba Inu/German Shepherd
Bichon Frise/Toy Poodle
Australian Shepherd/Jack Russell Terrier
Silky Terrier
Beagle/Chihuahua Longhair
Miniature Schnauzer/Border Collie
Catahoula/Mastiff
Vizsla/Beagle
Border Terrier/Border Collie
Greyhound/Airedale Terrier
Australian Kelpie/German Shepherd
American Staffordshire Terrier/Australian Cattle Dog
Bruss Griffon/Maltese
Manchester Terrier
Flat Coat Retriever
Chesa Bay Retr/Labrador Retriever
Plott Hound/Whippet
Maltese/Dalmatian
Catahoula/Treeing Walker Coonhound
Shetland Sheepdog/Italian Greyhound
Basset Hound/French Bulldog
Feist/Chihuahua Shorthair
Gordon Setter Mix
Dachshund Longhair/Toy Poodle
Pekingese/Catahoula
Welsh Terrier
Irish Terrier/Border Terrier
Labrador Retriever/English Springer Spaniel
Akita/Great Pyrenees
Siberian Husky/Great Pyrenees
Vizsla/German Shepherd
Chow Chow/American Eskimo
English Pointer/Labrador Retriever
Pointer/Australian Kelpie
Siamese/Angora
Australian Shepherd/German Shepherd
American Staffordshire Terrier/Pit Bull
Redbone Hound/Dachshund
Redbone Hound/Australian Cattle Dog
Collie Smooth/Beagle
Border Collie/Brittany
Cavalier Span/Toy Poodle
Standard Schnauzer/Soft Coated Wheaten Terrier
Miniature Poodle/West Highland
Great Pyrenees/Alaskan Husky
Irish Terrier/Irish Wolfhound
Collie Rough/Golden Retriever
